%YAML 1.1
%TAG !u! tag:unity3d.com,2011:
--- !u!1 &4206260760953427689
GameObject:
  m_ObjectHideFlags: 0
  m_CorrespondingSourceObject: {fileID: 0}
  m_PrefabInstance: {fileID: 0}
  m_PrefabAsset: {fileID: 0}
  serializedVersion: 6
  m_Component:
  - component: {fileID: 2296614452434787779}
  - component: {fileID: 7521217452011492567}
  m_Layer: 0
  m_Name: PointLight-Ceiling_001
  m_TagString: Untagged
  m_Icon: {fileID: 0}
  m_NavMeshLayer: 0
  m_StaticEditorFlags: 0
  m_IsActive: 1
--- !u!4 &2296614452434787779
Transform:
  m_ObjectHideFlags: 0
  m_CorrespondingSourceObject: {fileID: 0}
  m_PrefabInstance: {fileID: 0}
  m_PrefabAsset: {fileID: 0}
  m_GameObject: {fileID: 4206260760953427689}
  m_LocalRotation: {x: -0, y: -0, z: -0.9537212, w: -0.30069232}
  m_LocalPosition: {x: -1.0018, y: 0.6795, z: 9.4566}
  m_LocalScale: {x: 1, y: 1, z: 1}
  m_Children: []
  m_Father: {fileID: 0}
  m_RootOrder: 0
  m_LocalEulerAnglesHint: {x: 0, y: 0, z: -214.99799}
--- !u!114 &7521217452011492567
MonoBehaviour:
  m_ObjectHideFlags: 0
  m_CorrespondingSourceObject: {fileID: 0}
  m_PrefabInstance: {fileID: 0}
  m_PrefabAsset: {fileID: 0}
  m_GameObject: {fileID: 4206260760953427689}
  m_Enabled: 1
  m_EditorHideFlags: 0
  m_Script: {fileID: 11500000, guid: 57f24a4aaa0761b45ba25e7e5108e2c7, type: 3}
  m_Name: 
  m_EditorClassIdentifier: 
  UID: 1375992250
  color: {r: 1, g: 0.9568628, b: 0.83921576, a: 1}
  intensity: 10
  shadowSpread: 0.05
  cutoff: 5
  realisticFalloff: 0
  samples: 64
  projMode: 3
  cookie: {fileID: 0}
  angle: 30
  innerAngle: 0
  cubemap: {fileID: 0}
  iesFile: {fileID: 102900000, guid: 9c0a40f887cdb684285e188e52291e7e, type: 3}
  bitmask: 1
  bakeToIndirect: 0
  shadowmask: 0
  indirectIntensity: 1
  falloffMinRadius: 1
